Designator	Footprint	Mid X	Mid Y	Ref X	Ref Y	Pad X	Pad Y	Layer	Rotation	Comment
"C1"	"C0805"	"41mm"	"31mm"	"41mm"	"31mm"	"39.97mm"	"31mm"	"T"	"0"	"220nF"
"C2"	"C0805"	"27mm"	"31mm"	"27mm"	"31mm"	"25.97mm"	"31mm"	"T"	"0"	"220nF"
"C3"	"C0805"	"79mm"	"51mm"	"79mm"	"51mm"	"79mm"	"49.97mm"	"T"	"90"	"220nF"
"C4"	"C0805"	"95mm"	"50mm"	"95mm"	"50mm"	"93.97mm"	"50mm"	"T"	"0"	"220nF"
"C5"	"C0805"	"54mm"	"36mm"	"54mm"	"36mm"	"52.97mm"	"36mm"	"T"	"0"	"220nF"
"C6"	"C0805"	"15mm"	"32mm"	"15mm"	"32mm"	"16.03mm"	"32mm"	"T"	"180"	"1uF"
"C7"	"C1206"	"14mm"	"24mm"	"14mm"	"24mm"	"14mm"	"22.41mm"	"T"	"90"	"22uF"
"C8"	"C1206"	"18mm"	"24mm"	"18mm"	"24mm"	"18mm"	"22.41mm"	"T"	"90"	"22uF"
"C9"	"C0805"	"83mm"	"25mm"	"83mm"	"25mm"	"81.97mm"	"25mm"	"T"	"0"	"1uF"
"C10"	"C0805"	"80mm"	"21mm"	"80mm"	"21mm"	"80mm"	"22.03mm"	"T"	"270"	"1uF"
"C11"	"C0805"	"80mm"	"15mm"	"80mm"	"15mm"	"80mm"	"13.97mm"	"T"	"90"	"1uF"
"C12"	"C0805"	"91mm"	"25mm"	"91mm"	"25mm"	"89.97mm"	"25mm"	"T"	"0"	"1uF"
"C13"	"C0805"	"93mm"	"21mm"	"93mm"	"21mm"	"93mm"	"19.97mm"	"T"	"90"	"1uF"
"C14"	"C0805"	"70mm"	"30mm"	"70mm"	"30mm"	"70mm"	"28.97mm"	"T"	"90"	"220nF"
"CN1"	"CONN-TH_4P-P5.00_WJ128V-4P-5.0-14-00A"	"11mm"	"8mm"	"11mm"	"8mm"	"3.5mm"	"8.01mm"	"T"	"0"	"WJ128V-4P-5.0-14-00A"
"CN2"	"CONN-TH_4P-P5.00_WJ128V-4P-5.0-14-00A"	"34mm"	"8mm"	"34mm"	"8mm"	"26.5mm"	"8.01mm"	"T"	"0"	"WJ128V-4P-5.0-14-00A"
"CN3"	"CONN-TH_4P-P5.00_WJ128V-4P-5.0-14-00A"	"6mm"	"25mm"	"6mm"	"25mm"	"6.01mm"	"32.5mm"	"T"	"270"	"WJ128V-4P-5.0-14-00A"
"DSUB1"	"DB9-TH_09651616711"	"9mm"	"53mm"	"9mm"	"53mm"	"10.37mm"	"58.48mm"	"T"	"270"	"DE9MS-PCB"
"DSUB2"	"DB9-TH_09651616711"	"27mm"	"53mm"	"27mm"	"53mm"	"28.37mm"	"58.48mm"	"T"	"270"	"DE9MS-PCB"
"DSUB3"	"DB9-FEMALE"	"45mm"	"53mm"	"45mm"	"53mm"	"43.58mm"	"58.52mm"	"T"	"0"	"DE9FS-PCB"
"DSUB4"	"DB9-FEMALE"	"63mm"	"53mm"	"63mm"	"53mm"	"61.58mm"	"58.52mm"	"T"	"0"	"DE9FS-PCB"
"J1"	"HDR-TH_2P-P2.54-V-M-1"	"33.5mm"	"32.5mm"	"33.5mm"	"32.5mm"	"33.5mm"	"33.77mm"	"T"	"270"	"JUMPER2"
"P2"	"CONN-TH_3P-P5.00_WJ128V-5.0-3P"	"54.25mm"	"8mm"	"54.25mm"	"8mm"	"49.25mm"	"8mm"	"T"	"0"	"WJ128V-5.0-3P"
"R1"	"R0805"	"26mm"	"16mm"	"26mm"	"16mm"	"26mm"	"15.03mm"	"T"	"90"	"9.1kΩ"
"R2"	"R0805"	"29mm"	"16mm"	"29mm"	"16mm"	"29mm"	"15.03mm"	"T"	"90"	"9.1kΩ"
"R3"	"R0805"	"38mm"	"16mm"	"38mm"	"16mm"	"38mm"	"15.03mm"	"T"	"90"	"9.1kΩ"
"R4"	"R0805"	"41mm"	"16mm"	"41mm"	"16mm"	"41mm"	"15.03mm"	"T"	"90"	"9.1kΩ"
"R5"	"R0805"	"23mm"	"16mm"	"23mm"	"16mm"	"23mm"	"15.03mm"	"T"	"90"	"2.4kΩ"
"R6"	"R0805"	"32mm"	"16mm"	"32mm"	"16mm"	"32mm"	"15.03mm"	"T"	"90"	"2.4kΩ"
"R7"	"R0805"	"35mm"	"16mm"	"35mm"	"16mm"	"35mm"	"15.03mm"	"T"	"90"	"2.4kΩ"
"R8"	"R0805"	"44mm"	"16mm"	"44mm"	"16mm"	"44mm"	"15.03mm"	"T"	"90"	"2.4kΩ"
"R9"	"R0805"	"64mm"	"22mm"	"64mm"	"22mm"	"63.03mm"	"22mm"	"T"	"0"	"4.7kΩ"
"R10"	"R0805"	"58mm"	"22mm"	"58mm"	"22mm"	"57.03mm"	"22mm"	"T"	"0"	"4.7kΩ"
"R11"	"R0805"	"52mm"	"22mm"	"52mm"	"22mm"	"51.03mm"	"22mm"	"T"	"0"	"4.7kΩ"
"R12"	"R0805"	"64mm"	"18mm"	"64mm"	"18mm"	"63.03mm"	"18mm"	"T"	"0"	"9.1kΩ"
"R13"	"R0805"	"58mm"	"18mm"	"58mm"	"18mm"	"57.03mm"	"18mm"	"T"	"0"	"9.1kΩ"
"R14"	"R0805"	"52mm"	"18mm"	"52mm"	"18mm"	"51.03mm"	"18mm"	"T"	"0"	"9.1kΩ"
"R15"	"R0805"	"53mm"	"59mm"	"53mm"	"59mm"	"53mm"	"59.97mm"	"T"	"270"	"120Ω"
"R16"	"R0805"	"53mm"	"54mm"	"53mm"	"54mm"	"53mm"	"54.97mm"	"T"	"270"	"120Ω"
"R17"	"R0805"	"53mm"	"49mm"	"53mm"	"49mm"	"53mm"	"49.97mm"	"T"	"270"	"120Ω"
"R20"	"R0805"	"71mm"	"50mm"	"71mm"	"50mm"	"71mm"	"50.97mm"	"T"	"270"	"120Ω"
"R21"	"R0805"	"71mm"	"56mm"	"71mm"	"56mm"	"71mm"	"56.97mm"	"T"	"270"	"120Ω"
"R22"	"R0805"	"71mm"	"62mm"	"71mm"	"62mm"	"71mm"	"62.97mm"	"T"	"270"	"120Ω"
"R23"	"R0805"	"83mm"	"38mm"	"83mm"	"38mm"	"82.03mm"	"38mm"	"T"	"0"	"9.1kΩ"
"R24"	"R0805"	"83mm"	"34mm"	"83mm"	"34mm"	"82.03mm"	"34mm"	"T"	"0"	"9.1kΩ"
"R25"	"R0805"	"83mm"	"30mm"	"83mm"	"30mm"	"82.03mm"	"30mm"	"T"	"0"	"9.1kΩ"
"R26"	"R0805"	"89mm"	"38mm"	"89mm"	"38mm"	"89.97mm"	"38mm"	"T"	"180"	"4.7kΩ"
"R27"	"R0805"	"89mm"	"34mm"	"89mm"	"34mm"	"89.97mm"	"34mm"	"T"	"180"	"4.7kΩ"
"R28"	"R0805"	"89mm"	"30mm"	"89mm"	"30mm"	"89.97mm"	"30mm"	"T"	"180"	"4.7kΩ"
"U1"	"MAX1000"	"86mm"	"27.35mm"	"86mm"	"21mm"	"75.84mm"	"46.4mm"	"T"	"270"	"MAX1000"
"U2"	"SOIC-8_L5.0-W4.0-P1.27-LS6.0-BL"	"23mm"	"25mm"	"23mm"	"25mm"	"21.09mm"	"22.29mm"	"T"	"0"	"SP485EEN-L/TR"
"U3"	"SOIC-8_L5.0-W4.0-P1.27-LS6.0-BL"	"37mm"	"25mm"	"37mm"	"25mm"	"35.09mm"	"22.29mm"	"T"	"0"	"SP485EEN-L/TR"
"U4"	"SOIC-8_L5.0-W4.0-P1.27-LS6.0-BL"	"30mm"	"25mm"	"30mm"	"25mm"	"28.09mm"	"22.29mm"	"T"	"0"	"SP485EEN-L/TR"
"U5"	"SOIC-8_L5.0-W4.0-P1.27-LS6.0-BL"	"44mm"	"25mm"	"44mm"	"25mm"	"42.09mm"	"22.29mm"	"T"	"0"	"SP485EEN-L/TR"
"U6"	"SOIC-8_L5.0-W4.0-P1.27-LS6.0-BL"	"65mm"	"30mm"	"65mm"	"30mm"	"63.09mm"	"27.29mm"	"T"	"0"	"SP485EEN-L/TR"
"U7"	"SOIC-8_L5.0-W4.0-P1.27-LS6.0-BL"	"58mm"	"30mm"	"58mm"	"30mm"	"56.09mm"	"27.29mm"	"T"	"0"	"SP485EEN-L/TR"
"U8"	"SOIC-8_L5.0-W4.0-P1.27-LS6.0-BL"	"51mm"	"30mm"	"51mm"	"30mm"	"49.09mm"	"27.29mm"	"T"	"0"	"SP485EEN-L/TR"
"U9"	"SOIC-16_L9.9-W3.9-P1.27-LS6.0-BL"	"87mm"	"18mm"	"87mm"	"18mm"	"84.26mm"	"22.45mm"	"T"	"270"	"MAX232ESE"
"U10"	"SOIC-8_L5.0-W4.0-P1.27-LS6.0-BL"	"85mm"	"61mm"	"85mm"	"61mm"	"87.71mm"	"59.09mm"	"T"	"90"	"SP485EEN-L/TR"
"U11"	"SOIC-8_L5.0-W4.0-P1.27-LS6.0-BL"	"85mm"	"54mm"	"85mm"	"54mm"	"87.71mm"	"52.09mm"	"T"	"90"	"SP485EEN-L/TR"
"U12"	"SOIC-8_L5.0-W4.0-P1.27-LS6.0-BL"	"85mm"	"47mm"	"85mm"	"47mm"	"87.71mm"	"45.09mm"	"T"	"90"	"SP485EEN-L/TR"
